COQAUX1 343c6759d25c9926ee0c6d60df3ee153 /mnt/data/db/dropbox/tekst/teooria/coq/synt/cln/nlc0''/build/main.v
142 168 context_used ""
142 168 context_used ""
142 168 context_used ""
181 205 context_used ""
181 205 context_used ""
181 205 context_used ""
276 344 context_used ""
276 344 context_used ""
276 344 context_used ""
502 530 context_used ""
502 530 context_used ""
502 530 context_used ""
502 530 context_used ""
562 616 context_used ""
562 616 context_used ""
562 616 context_used ""
646 696 context_used ""
646 696 context_used ""
646 696 context_used ""
768 791 context_used ""
838 870 context_used ""
889 928 context_used ""
942 980 context_used ""
1015 1059 context_used ""
1070 1114 context_used ""
1123 1167 context_used ""
1176 1220 context_used ""
1232 1276 context_used ""
1290 1335 context_used ""
1356 1401 context_used ""
1422 1467 context_used ""
1545 1602 context_used ""
1638 1675 context_used ""
1676 1713 context_used ""
1714 1751 context_used ""
1752 1789 context_used ""
1790 1827 context_used ""
1828 1866 context_used ""
1867 1905 context_used ""
1906 1944 context_used ""
1946 2002 context_used ""
2043 2080 context_used ""
2081 2118 context_used ""
2119 2156 context_used ""
2158 2215 context_used ""
2239 2276 context_used ""
2277 2314 context_used ""
2315 2352 context_used ""
2353 2390 context_used ""
2392 2449 context_used ""
2475 2512 context_used ""
2513 2550 context_used ""
2551 2588 context_used ""
2589 2626 context_used ""
2627 2665 context_used ""
2666 2704 context_used ""
2706 2766 context_used ""
2785 2824 context_used ""
2825 2864 context_used ""
2866 2926 context_used ""
2952 2991 context_used ""
2992 3031 context_used ""
3033 3092 context_used ""
3114 3153 context_used ""
3154 3193 context_used ""
3365 3406 context_used ""
3472 3516 context_used ""
3517 3557 context_used ""
3726 3765 context_used ""
3766 3814 context_used ""
3815 3863 context_used ""
3864 3922 context_used ""
4272 4305 context_used ""
4306 4344 context_used ""
4345 4383 context_used ""
4384 4422 context_used ""
4423 4461 context_used ""
4462 4524 context_used ""
4544 4612 context_used ""
4645 4712 context_used ""
4713 4778 context_used ""
4779 4845 context_used ""
4961 5026 context_used ""
5569 5626 context_used ""
5627 5668 context_used ""
5676 5717 context_used ""
5791 5887 context_used ""
5791 5887 context_used ""
5791 5887 context_used ""
5791 5887 context_used ""
5791 5887 context_used ""
5791 5887 context_used ""
5888 5943 context_used ""
5944 5997 context_used ""
5998 6052 context_used ""
6053 6107 context_used ""
7341 7415 context_used ""
7465 7517 context_used ""
7518 7573 context_used ""
7636 7728 context_used ""
7636 7728 context_used ""
7754 7831 context_used ""
7913 7994 context_used ""
7995 8062 context_used ""
8088 8150 context_used ""
8151 8179 context_used ""
8180 8234 context_used ""
8259 8299 context_used ""
8356 8419 context_used ""
8420 8475 context_used ""
8420 8475 context_used ""
8476 8532 context_used ""
8476 8532 context_used ""
8533 8586 context_used ""
8651 8716 context_used ""
8717 8770 context_used ""
8832 8870 context_used ""
8871 8936 context_used ""
8964 9039 context_used ""
9064 9101 context_used ""
9162 9208 context_used ""
9209 9246 context_used ""
9329 9415 context_used ""
9416 9491 context_used ""
9492 9577 context_used ""
9578 9650 context_used ""
9788 9872 context_used ""
9998 10070 context_used ""
10071 10143 context_used ""
10224 10265 context_used ""
10266 10356 context_used ""
10368 10440 context_used ""
10470 10533 context_used ""
10542 10614 context_used ""
10615 10680 context_used ""
10693 10731 context_used ""
11033 11086 context_used ""
11033 11086 context_used ""
11142 11168 context_used ""
11169 11195 context_used ""
11265 11368 context_used ""
11436 11476 context_used ""
11477 11539 context_used ""
11593 11655 context_used ""
11691 11755 context_used ""
11804 11891 context_used ""
11892 11936 context_used ""
11938 11978 context_used ""
11979 12049 context_used ""
12112 12182 context_used ""
12232 12304 context_used ""
12328 12447 context_used ""
12448 12492 context_used ""
12663 12715 context_used ""
12716 12771 context_used ""
12773 12813 context_used ""
12814 12876 context_used ""
12877 12939 context_used ""
12940 13070 context_used ""
13071 13115 context_used ""
13117 13154 context_used ""
13155 13215 context_used ""
13216 13276 context_used ""
13277 13373 context_used ""
13374 13415 context_used ""
13480 13508 context_used ""
13509 13551 context_used ""
13509 13551 context_used ""
13620 13636 context_used ""
13660 13678 context_used ""
13679 13695 context_used ""
13696 13715 context_used ""
13965 13988 context_used ""
13965 13988 context_used ""
13965 13988 context_used ""
13965 13988 context_used ""
14004 14027 context_used ""
14004 14027 context_used ""
14004 14027 context_used ""
14004 14027 context_used ""
14071 14104 context_used ""
14147 14391 context_used ""
14420 14525 context_used ""
14526 14684 context_used ""
14712 14773 context_used ""
14797 14873 context_used ""
14797 14873 context_used ""
14797 14873 context_used ""
14874 14919 context_used ""
14927 14994 context_used ""
15012 15265 context_used ""
15266 15360 context_used ""
15370 15494 context_used ""
15495 15607 context_used ""
15616 15659 context_used ""
15660 15721 context_used ""
0 0 vo_compile_time "0.153"
